Coursera Machine Learning Project
…
## Skim view of data to better understand column types
## Note that the command View(ViewOfTrainingData) was used in RStudio to analyse the entire summary dataframe.  
ViewOfTrainingData <- skim_to_wide(training)
print(ViewOfTrainingData,10)

## # A tibble: 159 x 19
##       type             variable missing complete     n n_unique
##      <chr>                <chr>   <chr>    <chr> <chr>    <chr>
##  1  factor               classe       0     9812  9812        5
##  2  factor           new_window       0     9812  9812        2
##  3  factor            user_name       0     9812  9812        6
##  4 integer           num_window       0     9812  9812     <NA>
##  5 integer raw_timestamp_part_1       0     9812  9812     <NA>
##  6 integer raw_timestamp_part_2       0     9812  9812     <NA>
##  7 numeric          accel_arm_x       0     9812  9812     <NA>
##  8 numeric          accel_arm_y       0     9812  9812     <NA>
##  9 numeric          accel_arm_z       0     9812  9812     <NA>
## 10 numeric         accel_belt_x       0     9812  9812     <NA>
## # ... with 149 more rows, and 13 more variables: top_counts <chr>,
## #   ordered <chr>, mean <chr>, sd <chr>, p0 <chr>, p25 <chr>, p50 <chr>,
## #   p75 <chr>, p100 <chr>, hist <chr>, min <chr>, max <chr>, median <chr>
…
